…
# find the unique values and remove all of the rows that the IDs are not available
phi_effector_proteinID_unique <- phi_effector_proteinID %>%
  group_by(`Protein ID`) %>% 
  summarise(`Pathogen species` = first(`Pathogen species`)) %>% 
  dplyr::filter_all(all_vars(!str_detect(., 'no data found')))

phi_effector_proteinID_unique %>% 
  group_by(`Pathogen species`) %>%
  summarise(count = n())
```

    ## # A tibble: 68 x 2
    ##    `Pathogen species`        count
    ##    <chr>                     <int>
    ##  1 Acinetobacter baumannii       1
    ##  2 Aeromonas hydrophila          2
    ##  3 Aeromonas salmonicida         1
    ##  4 Beauveria bassiana            2
    ##  5 Blumeria graminis             2
    ##  6 Botrytis cinerea              2
    ##  7 Brucella abortus              1
    ##  8 Burkholderia glumae           1
    ##  9 Burkholderia pseudomallei    22
    ## 10 Campylobacter jejuni          1
    ## # … with 58 more rows

``` r
# Salmonella_ids <- phi_effector_proteinID_unique %>%  
#   dplyr::filter(`Pathogen species` == "Salmonella enterica") %>%
#   select(`Protein ID`)

write.csv(phi_effector_proteinID_unique, "../../data/phi_effector_proteinID_unique.csv")
phi_effector_proteinID_unique
```

    ## # A tibble: 496 x 2
    ##    `Protein ID` `Pathogen species`       
    ##    <chr>        <chr>                    
    ##  1 A0A023UJQ9   Passalora fulva          
    ##  2 A0A069B9Y9   Burkholderia pseudomallei
    ##  3 A0A069BGU6   Burkholderia pseudomallei
    ##  4 A0A0A0S3X0   Leptosphaeria maculans   
    ##  5 A0A0A2ILW0   Penicillium expansum     
    ##  6 A0A0A2JB06   Penicillium expansum     
    ##  7 A0A0A2JVC2   Penicillium expansum     
    ##  8 A0A0A2JY92   Penicillium expansum     
    ##  9 A0A0A7DLN4   Magnaporthe oryzae       
    ## 10 A0A0A7DM22   Magnaporthe oryzae       
    ## # … with 486 more rows
…
effector_data_count_each_organism_sample_list <- effector_data_count_each_organism_sample %>%
  dplyr::summarise(all_ids = paste(pathogen_short, collapse = "|")) %>%
  unlist() %>%
  strsplit("\\|") %>%
  unlist() %>%
  unname()
```

``` r
effector_data_count_each_organism_sample 
```

    ## # A tibble: 67 x 2
    ##    pathogen_short            count
    ##    <chr>                     <int>
    ##  1 Acinetobacter baumannii       1
    ##  2 Aeromonas hydrophila          2
    ##  3 Aeromonas salmonicida         1
    ##  4 Beauveria bassiana            2
    ##  5 Blumeria graminis             2
    ##  6 Botrytis cinerea              2
    ##  7 Brucella abortus              1
    ##  8 Burkholderia glumae           1
    ##  9 Burkholderia pseudomallei    22
    ## 10 Campylobacter jejuni          1
    ## # … with 57 more rows
…
``` r
# noneffector %>%
#   dplyr::select(pathogen_short) %>%
#   mutate(word_count = stringr::str_count(pathogen_short, "\\S+")) %>%
#   # unique()
#   filter(word_count > 2)

uniq_noneffector_data <- noneffector_group_by_IDs %>%
  group_by(pathogen_short) %>%
  summarise(count = n())

uniq_noneffector_data
```

    ## # A tibble: 235 x 2
    ##    pathogen_short                  count
    ##    <chr>                           <int>
    ##  1 Acinetobacter baumannii            26
    ##  2 Acinetobacter nosocomialis          4
    ##  3 Actinobacillus pleuropneumoniae    11
    ##  4 Aeromonas salmonicida               1
    ##  5 Agrobacterium tumefaciens           4
    ##  6 Agrobacterium vitis                 5
    ##  7 Alternaria alternata               28
    ##  8 Alternaria brassicicola            16
    ##  9 Alternaria citri                    1
    ## 10 Alternaria longipes                 1
    ## # … with 225 more rows
…
``` r
# Perfect available data
good_available_noneffector_data <- uniq_available_noneffector_data %>%
  filter(!is.na(count.y)) %>%
  filter(count.x <= count.y) %>%
  select(-count.y) %>%
  rename(count = count.x)
```

``` r
good_available_noneffector_data 
```

    ## # A tibble: 46 x 2
    ##    pathogen_short            count
    ##    <chr>                     <int>
    ##  1 Acinetobacter baumannii       1
    ##  2 Aeromonas salmonicida         1
    ##  3 Beauveria bassiana            2
    ##  4 Blumeria graminis             2
    ##  5 Botrytis cinerea              2
    ##  6 Brucella abortus              1
    ##  7 Burkholderia glumae           1
    ##  8 Burkholderia pseudomallei    22
    ##  9 Campylobacter jejuni          1
    ## 10 Citrobacter rodentium         1
    ## # … with 36 more rows
…
By using te function created previously, we can easily get the data of
the non-effector in phi-base table:

``` r
noneffector_data_from_phi_base_partial <- get_sample_of_noneffectors(partial_available_noneffector_data, noneffector, count = "available_count")
```

``` r
noneffector_data_from_phi_base_partial
```

    ## # A tibble: 68 x 2
    ##    `Protein ID` pathogen_short        
    ##    <chr>        <chr>                 
    ##  1 Q00364       Passalora fulva       
    ##  2 Q00365       Passalora fulva       
    ##  3 Q9HEW7       Passalora fulva       
    ##  4 Q9P304       Passalora fulva       
    ##  5 A0A0D3LX64   Phytophthora capsici  
    ##  6 A0A0D3LXD4   Phytophthora capsici  
    ##  7 A0A0D3LXF0   Phytophthora capsici  
    ##  8 A0A0D3LXG7   Phytophthora capsici  
    ##  9 Q0ZJ79       Phytophthora capsici  
    ## 10 D0MSJ4       Phytophthora infestans
    ## # … with 58 more rows
…
