…
Likewise, we can check those species that couldn’t be queried.

``` r
file_ids_missing <- effector_table_check %>% 
  dplyr::filter(status == 0) %>% 
  select(-status)

file_ids_missing
```

    ## Source: local data frame [90 x 5]
    ## Groups: <by row>
    ## 
    ## # A tibble: 90 x 5
    ##      num species               strain                      table_path lines
    ##    <int> <chr>                 <chr>                       <chr>      <dbl>
    ##  1     2 Aeromonas hydrophila  SSU                         <NA>          NA
    ##  2     8 Botrytis cinerea      no data found               <NA>          NA
    ##  3    15 Cercospora apii       no data found               <NA>          NA
    ##  4    16 Cercospora beticola   no data found               <NA>          NA
    ##  5    18 Clavibacter michigan… Cm15-2.0 sm                 <NA>          NA
    ##  6    19 Colletotrichum orbic… 104-T                       <NA>          NA
    ##  7    20 Coxiella burnetii     Nine Mile (RSA493)          <NA>          NA
    ##  8    21 Coxiella burnetii     Nine Mile Phase II Clone 4… <NA>          NA
    ##  9    22 Coxiella burnetii     NMII                        <NA>          NA
    ## 10    25 Dothistroma septospo… no data found               <NA>          NA
    ## # … with 80 more rows
…
