…
Getting info from the sample data we got

``` r
bacteria_sample_data_count <- bacteria_non_eff_secreted_data  %>%
  group_by(organism_name) %>%
  summarise(count = n())

bacteria_sample_data_count
```

    ## # A tibble: 36 x 2
    ##    organism_name                                                     count
    ##    <chr>                                                             <int>
    ##  1 clavibacter_michiganensis_subsp_michiganensis_ncppb_382.asm6348v1     2
    ##  2 cystobacter_fuscus_dsm_2262.asm33547v2                                1
    ##  3 erwinia_amylovora_cfbp1430.asm9156v1                                 10
    ##  4 pantoea_stewartii_subsp_stewartii_dc283.asm24839v2                    1
    ##  5 pantoea_stewartii.asm78625v1                                          1
    ##  6 pseudomonas_amygdali_pv_morsprunorum.pmpftrs_u7805                    1
    ##  7 pseudomonas_amygdali_pv_tabaci.asm93464v1                             1
    ##  8 pseudomonas_cichorii_jbc1.asm51730v1                                  1
    ##  9 pseudomonas_savastanoi_pv_phaseolicola_1448a.asm1220v1                6
    ## 10 pseudomonas_savastanoi_pv_phaseolicola.pphy5_2                        5
    ## # … with 26 more rows
…
